<svg width="60" height="60" viewBox="0 0 60 60" fill="none" xmlns="http://www.w3.org/2000/svg">
<path d="M26.6667 13.3333H46.6667V20H26.6667V13.3333ZM26.6667 26.6667H46.6667V33.3333H26.6667V26.6667ZM26.6667 40H46.6667V46.6667H26.6667V40ZM13.3333 13.3333H20V20H13.3333V13.3333ZM13.3333 26.6667H20V33.3333H13.3333V26.6667ZM13.3333 40H20V46.6667H13.3333V40ZM0 0V60H60V0H0ZM53.3333 53.3333H6.66667V6.66667H53.3333V53.3333Z" fill="#737373"/>
</svg>
