<svg width="12" height="13" viewBox="0 0 12 13" fill="none" xmlns="http://www.w3.org/2000/svg">
<path d="M10.2357 1.76715C9.60643 1.1322 8.84256 0.646716 8.00052 0.346543C7.15847 0.0463696 6.25976 -0.0608231 5.37073 0.0328807C2.61542 0.310664 0.348103 2.54795 0.0402891 5.30326C-0.372633 8.94448 2.44274 12.0151 5.99387 12.0151C7.12761 12.0151 8.23807 11.6934 9.19626 11.0874C10.1544 10.4814 10.921 9.61596 11.4069 8.59162C11.6471 8.0886 11.2868 7.51051 10.7312 7.51051C10.4534 7.51051 10.1907 7.66067 10.0705 7.90842C9.63464 8.84614 8.8891 9.60514 7.95931 10.0577C7.02953 10.5103 5.97225 10.6289 4.96532 10.3935C3.29862 10.0256 1.95474 8.6667 1.60188 6.99999C1.45356 6.34102 1.45527 5.65712 1.60691 4.9989C1.75855 4.34068 2.05622 3.72496 2.47792 3.1973C2.89961 2.66964 3.43454 2.24354 4.04313 1.9505C4.65172 1.65747 5.3184 1.505 5.99387 1.50438C7.24014 1.50438 8.35127 2.02241 9.1621 2.84075L8.02845 3.9744C7.55546 4.44739 7.8858 5.25822 8.55398 5.25822H11.2492C11.6622 5.25822 12 4.92037 12 4.50745V1.8122C12 1.14401 11.1892 0.80617 10.7162 1.27915L10.2357 1.76715V1.76715Z" fill="white"/>
</svg>
