// Jest Snapshot v1, https://goo.gl/fbAQLP

exports[`<Offbaording/> renders correctly 1`] = `
"<div className=\\"offboard\\">
  <h3 className=\\"offboard__header\\">
    Offboard User
  </h3>
  <div>
    <SearchBar searchBar={{...}} secondary={true} success={[Function: mockConstructor]} error={[Function: mockConstructor]} />
  </div>
</div>"
`;
