{
  "title": "Encounter Log",
  "subtitle": "Enter the following information to obtain a custom report of existing contact traces.",
  "formInputs": {
    "phoneNumber": "Phone Number",
    "lastEncounter": "Last Encounter",
    "firstEncounter": "First Encounter",
    "minimumDuration": "Minimum Duration",
    "errorMessage": "Last Encounter Must Be After First Encounter"
  },
  "durations": [
    {
      "value": "Blank",
      "label": "--"
    },
    {
      "value": 15,
      "label": "15 mins"
    },
    {
      "value": 30,
      "label": "30 mins"
    },
    {
      "value": 45,
      "label": "45 mins"
    },
    {
      "value": 60,
      "label": "60 mins"
    }
  ],
  "searchButtonText": "Generate Log"
}