{
  "title": "Get Upload Token",
  "instruction": "Verify the following code with the user on the call: ",
  "failureMessage": "User Not Found. Please double-check the number and try again.",
  "searchBar": {
    "placeHolderText": "Enter user phone's number",
    "buttonText": "Get Token"
  },
  "sendSMSText": "Send user SMS code",
  "uploadSuccessful": "SMS code has been sent.",
  "uploadFailure": "SMS code could not be sent at this time.",
  "tokenNotFound": "Error. SMS code can only be sent when user is no longer on the 'Verify your code' screen. Please guide user to click the 'next' button and then try sending the code again."
}